EGM
…
saveRDS(egm_data,file="egm_data.rds")

ANALYSIS

egm_data %>% 
  select(date,n_of_participants,pension_fund_company,n_of_pensioners,n_of_ind_contracts) %>% arrange(n_of_pensioners) %>% 
  filter(n_of_participants>10000 & n_of_participants<50000)

## # A tibble: 226 x 5
##    date  n_of_participan pension_fund_co n_of_pensioners n_of_ind_contr
##    <chr>            <dbl> <chr>            <chr>                     <dbl>
##  1 06.0            38754 Fiba Emeklilik  103                       33841
##  2 13.0            38698 Fiba Emeklilik  103                       33793
##  3 20.0            38633 Fiba Emeklilik  106                       33714
##  4 27.0            38579 Fiba Emeklilik  106                       33633
##  5 31.0            38518 Fiba Emeklilik  110                       33559
##  6 03.0            38510 Fiba Emeklilik  110                       33543
##  7 10.0            38513 Fiba Emeklilik  110                       33558
##  8 17.0            38396 Fiba Emeklilik  112                       33451
##  9 24.0            38311 Fiba Emeklilik  114                       33370
## 10 28.0            38308 Fiba Emeklilik  115                       33343
## # ... with 216 more rows

egm_data %>% 
  select(date,n_of_participants,pension_fund_company,n_of_pensioners,n_of_ind_contracts) %>% arrange(n_of_pensioners) %>% 
  filter(n_of_participants>50000 & n_of_participants<100000)

## # A tibble: 76 x 5
##    date  n_of_participan pension_fund_co n_of_pensioners n_of_ind_contr
##    <chr>            <dbl> <chr>            <chr>                     <dbl>
##  1 06.0            62080 Groupama Emekli 1963                      61411
##  2 13.0            61925 Groupama Emekli 1981                      61246
##  3 20.0            61774 Groupama Emekli 1998                      61064
##  4 27.0            61590 Groupama Emekli 2023                      60852
##  5 31.0            61591 Groupama Emekli 2027                      60855
##  6 03.0            61576 Groupama Emekli 2039                      60833
##  7 10.0            61427 Groupama Emekli 2056                      60654
##  8 17.0            61298 Groupama Emekli 2073                      60495
##  9 24.0            61053 Groupama Emekli 2096                      60222
## 10 28.0            61050 Groupama Emekli 2102                      60217
## # ... with 66 more rows

egm_data  %>% group_by(date) %>%summarise(SumOfParticipants= sum(n_of_participants))

## # A tibble: 76 x 2
##    date       SumOfParticipants
##    <chr>                  <dbl>
##  1 01.09.2017           6832480
##  2 01.12.2017           6899633
##  3 02.02.2018           6926449
##  4 02.03.2018           6948787
##  5 02.06.2017           6792371
##  6 03.02.2017           6720725
##  7 03.03.2017           6745783
##  8 03.11.2017           6870150
##  9 04.08.2017           6825395
## 10 05.01.2018           6928979
## # ... with 66 more rows
…
